{
    "code": 20000,
    "message": "查询成功",
    "data": {
        "list": [
            {
                "id": 1969,
                "task_key": "review_1965_1774950413",
                "task_name": "【审核失败-重新收集】260323-丛丹琪 - 审核",
                "task_group": "实习生Training",
                "task_group_key": "8937d1de-83c0-4d9e-a281-2fdf18c9ec7a",
                "task_group_id": 22,
                "status": "published",
                "priority": "high",
                "deadline": "2026-04-07 07:11:56",
                "created_by": "丛丹琪",
                "created_by_id": 25,
                "assigned_to": null,
                "assigned_to_id": null,
                "assigned_at": null,
                "completed_at": null,
                "cancelled_at": null,
                "created_at": "2026-03-31 09:46:53",
                "updated_at": "2026-03-31 09:46:53",
                "total_companies": 2,
                "completed_companies": 0,
                "task_type": "review",
                "source_task_id": 1965,
                "recollect_task_id": null,
                "progress": 0.0,
                "last_related_task_id": null,
                "last_related_task_status": "",
                "last_related_task_type": ""
            },
            {
                "id": 1918,
                "task_key": "review_1910_1774598152",
                "task_name": "【审核失败-重新收集】260325-刘森荣 - 审核",
                "task_group": "日历报告收集2",
                "task_group_key": "f5c7bee5-b5b3-4079-8bbe-e04a909db5dc",
                "task_group_id": 19,
                "status": "published",
                "priority": "high",
                "deadline": "2026-04-01 01:08:08",
                "created_by": "刘森荣",
                "created_by_id": 146,
                "assigned_to": null,
                "assigned_to_id": null,
                "assigned_at": null,
                "completed_at": null,
                "cancelled_at": null,
                "created_at": "2026-03-27 07:55:52",
                "updated_at": "2026-03-27 07:55:52",
                "total_companies": 5,
                "completed_companies": 0,
                "task_type": "review",
                "source_task_id": 1910,
                "recollect_task_id": null,
                "progress": 0.0,
                "last_related_task_id": null,
                "last_related_task_status": "",
                "last_related_task_type": ""
            },
            {
                "id": 1909,
                "task_key": "review_1856_1774591788",
                "task_name": "【审核失败-重新收集】260323-舒慢林 - 审核",
                "task_group": "实习生Training",
                "task_group_key": "8937d1de-83c0-4d9e-a281-2fdf18c9ec7a",
                "task_group_id": 22,
                "status": "published",
                "priority": "high",
                "deadline": "2026-03-30 09:09:40",
                "created_by": "舒慢林",
                "created_by_id": 28,
                "assigned_to": null,
                "assigned_to_id": null,
                "assigned_at": null,
                "completed_at": null,
                "cancelled_at": null,
                "created_at": "2026-03-27 06:09:48",
                "updated_at": "2026-03-27 06:09:48",
                "total_companies": 14,
                "completed_companies": 0,
                "task_type": "review",
                "source_task_id": 1856,
                "recollect_task_id": null,
                "progress": 0.0,
                "last_related_task_id": null,
                "last_related_task_status": "",
                "last_related_task_type": ""
            },
            {
                "id": 1907,
                "task_key": "review_1893_1774582532",
                "task_name": "【审核失败-重新收集】【审核失败-重新收集】260319-舒慢林 - 审核",
                "task_group": "实习生Training",
                "task_group_key": "8937d1de-83c0-4d9e-a281-2fdf18c9ec7a",
                "task_group_id": 22,
                "status": "published",
                "priority": "high",
                "deadline": "2026-03-26 09:38:39",
                "created_by": "舒慢林",
                "created_by_id": 28,
                "assigned_to": null,
                "assigned_to_id": null,
                "assigned_at": null,
                "completed_at": null,
                "cancelled_at": null,
                "created_at": "2026-03-27 03:35:32",
                "updated_at": "2026-03-27 03:35:32",
                "total_companies": 2,
                "completed_companies": 0,
                "task_type": "review",
                "source_task_id": 1893,
                "recollect_task_id": null,
                "progress": 0.0,
                "last_related_task_id": null,
                "last_related_task_status": "",
                "last_related_task_type": ""
            },
            {
                "id": 1899,
                "task_key": "review_1881_1774537327",
                "task_name": "【审核失败-重新收集】260323-吴皓楠 - 审核",
                "task_group": "实习生Training",
                "task_group_key": "8937d1de-83c0-4d9e-a281-2fdf18c9ec7a",
                "task_group_id": 22,
                "status": "published",
                "priority": "high",
                "deadline": "2026-03-30 09:00:52",
                "created_by": "吴皓楠",
                "created_by_id": 42,
                "assigned_to": null,
                "assigned_to_id": null,
                "assigned_at": null,
                "completed_at": null,
                "cancelled_at": null,
                "created_at": "2026-03-26 15:02:07",
                "updated_at": "2026-03-26 15:02:07",
                "total_companies": 7,
                "completed_companies": 0,
                "task_type": "review",
                "source_task_id": 1881,
                "recollect_task_id": null,
                "progress": 0.0,
                "last_related_task_id": null,
                "last_related_task_status": "",
                "last_related_task_type": ""
            },
            {
                "id": 1897,
                "task_key": "review_1886_1774518635",
                "task_name": "【审核失败-重新收集】260323-詹财芳 - 审核",
                "task_group": "实习生Training",
                "task_group_key": "8937d1de-83c0-4d9e-a281-2fdf18c9ec7a",
                "task_group_id": 22,
                "status": "published",
                "priority": "high",
                "deadline": "2026-03-30 07:23:08",
                "created_by": "詹财芳",
                "created_by_id": 45,
                "assigned_to": null,
                "assigned_to_id": null,
                "assigned_at": null,
                "completed_at": null,
                "cancelled_at": null,
                "created_at": "2026-03-26 09:50:35",
                "updated_at": "2026-03-26 09:50:35",
                "total_companies": 4,
                "completed_companies": 0,
                "task_type": "review",
                "source_task_id": 1886,
                "recollect_task_id": null,
                "progress": 0.0,
                "last_related_task_id": null,
                "last_related_task_status": "",
                "last_related_task_type": ""
            },
            {
                "id": 1866,
                "task_key": "review_1862_1774434338",
                "task_name": "【审核失败-重新收集】260323-刘森荣 - 审核",
                "task_group": "日历报告收集2",
                "task_group_key": "f5c7bee5-b5b3-4079-8bbe-e04a909db5dc",
                "task_group_id": 19,
                "status": "published",
                "priority": "high",
                "deadline": "2026-03-30 09:31:43",
                "created_by": "刘森荣",
                "created_by_id": 146,
                "assigned_to": null,
                "assigned_to_id": null,
                "assigned_at": null,
                "completed_at": null,
                "cancelled_at": null,
                "created_at": "2026-03-25 18:25:38",
                "updated_at": "2026-03-25 18:25:38",
                "total_companies": 11,
                "completed_companies": 0,
                "task_type": "review",
                "source_task_id": 1862,
                "recollect_task_id": null,
                "progress": 0.0,
                "last_related_task_id": null,
                "last_related_task_status": "",
                "last_related_task_type": ""
            },
            {
                "id": 1851,
                "task_key": "review_1810_1774415150",
                "task_name": "【审核失败-重新收集】260319-潘小睿 - 审核",
                "task_group": "实习生Training",
                "task_group_key": "8937d1de-83c0-4d9e-a281-2fdf18c9ec7a",
                "task_group_id": 22,
                "status": "published",
                "priority": "high",
                "deadline": "2026-04-07 05:56:40",
                "created_by": "潘小睿",
                "created_by_id": 63,
                "assigned_to": null,
                "assigned_to_id": null,
                "assigned_at": null,
                "completed_at": null,
                "cancelled_at": null,
                "created_at": "2026-03-25 13:05:50",
                "updated_at": "2026-03-31 05:58:39",
                "total_companies": 1,
                "completed_companies": 0,
                "task_type": "review",
                "source_task_id": 1810,
                "recollect_task_id": null,
                "progress": 0.0,
                "last_related_task_id": null,
                "last_related_task_status": "",
                "last_related_task_type": ""
            },
            {
                "id": 1850,
                "task_key": "review_1506_1774410260",
                "task_name": "【审核失败-重新收集】260310-王雨馨 - 审核",
                "task_group": "日历报告收集2",
                "task_group_key": "f5c7bee5-b5b3-4079-8bbe-e04a909db5dc",
                "task_group_id": 19,
                "status": "published",
                "priority": "high",
                "deadline": "2026-04-01 11:44:20",
                "created_by": "王雨馨",
                "created_by_id": 148,
                "assigned_to": null,
                "assigned_to_id": null,
                "assigned_at": null,
                "completed_at": null,
                "cancelled_at": null,
                "created_at": "2026-03-25 11:44:20",
                "updated_at": "2026-03-27 06:20:09",
                "total_companies": 29,
                "completed_companies": 0,
                "task_type": "review",
                "source_task_id": 1506,
                "recollect_task_id": null,
                "progress": 0.0,
                "last_related_task_id": null,
                "last_related_task_status": "",
                "last_related_task_type": ""
            },
            {
                "id": 1848,
                "task_key": "review_1515_1774408274",
                "task_name": "【审核失败-重新收集】260309-王雨馨 - 审核",
                "task_group": "日历报告收集2",
                "task_group_key": "f5c7bee5-b5b3-4079-8bbe-e04a909db5dc",
                "task_group_id": 19,
                "status": "published",
                "priority": "high",
                "deadline": "2026-03-16 02:32:44",
                "created_by": "王雨馨",
                "created_by_id": 148,
                "assigned_to": null,
                "assigned_to_id": null,
                "assigned_at": null,
                "completed_at": null,
                "cancelled_at": null,
                "created_at": "2026-03-25 11:11:14",
                "updated_at": "2026-03-25 11:11:14",
                "total_companies": 10,
                "completed_companies": 0,
                "task_type": "review",
                "source_task_id": 1515,
                "recollect_task_id": null,
                "progress": 0.0,
                "last_related_task_id": null,
                "last_related_task_status": "",
                "last_related_task_type": ""
            },
            {
                "id": 1844,
                "task_key": "review_1575_1774405896",
                "task_name": "【审核失败-重新收集】260311-张凯洋 - 审核",
                "task_group": "日历报告收集2",
                "task_group_key": "f5c7bee5-b5b3-4079-8bbe-e04a909db5dc",
                "task_group_id": 19,
                "status": "published",
                "priority": "high",
                "deadline": "2026-03-18 01:28:11",
                "created_by": "张凯洋",
                "created_by_id": 152,
                "assigned_to": null,
                "assigned_to_id": null,
                "assigned_at": null,
                "completed_at": null,
                "cancelled_at": null,
                "created_at": "2026-03-25 10:31:36",
                "updated_at": "2026-03-25 10:31:36",
                "total_companies": 29,
                "completed_companies": 0,
                "task_type": "review",
                "source_task_id": 1575,
                "recollect_task_id": null,
                "progress": 0.0,
                "last_related_task_id": null,
                "last_related_task_status": "",
                "last_related_task_type": ""
            },
            {
                "id": 1613,
                "task_key": "review_1612_1773717026",
                "task_name": "【审核失败-重新收集】260316-靳海丽 - 审核",
                "task_group": "日历报告收集2",
                "task_group_key": "f5c7bee5-b5b3-4079-8bbe-e04a909db5dc",
                "task_group_id": 19,
                "status": "published",
                "priority": "high",
                "deadline": "2026-03-23 02:00:17",
                "created_by": "靳海丽",
                "created_by_id": 29,
                "assigned_to": null,
                "assigned_to_id": null,
                "assigned_at": null,
                "completed_at": null,
                "cancelled_at": null,
                "created_at": "2026-03-17 11:10:26",
                "updated_at": "2026-03-24 07:49:38",
                "total_companies": 3,
                "completed_companies": 0,
                "task_type": "review",
                "source_task_id": 1612,
                "recollect_task_id": null,
                "progress": 0.0,
                "last_related_task_id": null,
                "last_related_task_status": "",
                "last_related_task_type": ""
            }
        ],
        "pagination": {
            "total": 52,
            "page": 1,
            "page_size": 12,
            "total_pages": 5
        }
    },
    "detail": {},
    "count": 0
}
